%YAML 1.1
%TAG !u! tag:unity3d.com,2011:
--- !u!1 &8408236720757216010
GameObject:
  m_ObjectHideFlags: 0
  m_CorrespondingSourceObject: {fileID: 0}
  m_PrefabInstance: {fileID: 0}
  m_PrefabAsset: {fileID: 0}
  serializedVersion: 6
  m_Component:
  - component: {fileID: 8407663392660099785}
  m_Layer: 0
  m_Name: SendingAreaHighlight
  m_TagString: Untagged
  m_Icon: {fileID: 0}
  m_NavMeshLayer: 0
  m_StaticEditorFlags: 0
  m_IsActive: 1
--- !u!4 &8407663392660099785
Transform:
  m_ObjectHideFlags: 0
  m_CorrespondingSourceObject: {fileID: 0}
  m_PrefabInstance: {fileID: 0}
  m_PrefabAsset: {fileID: 0}
  m_GameObject: {fileID: 8408236720757216010}
  m_LocalRotation: {x: 0, y: 0, z: 0, w: 1}
  m_LocalPosition: {x: -31.91027, y: -41.477272, z: -6.7495394}
  m_LocalScale: {x: 1, y: 1, z: 1}
  m_Children:
  - {fileID: 4426245981050923267}
  m_Father: {fileID: 0}
  m_RootOrder: 0
  m_LocalEulerAnglesHint: {x: 0, y: 0, z: 0}
--- !u!1001 &8653556227039805977
PrefabInstance:
  m_ObjectHideFlags: 0
  serializedVersion: 2
  m_Modification:
    m_TransformParent: {fileID: 8407663392660099785}
    m_Modifications:
    - target: {fileID: -4216859302048453862, guid: 55764f21fad6a9e4e81c2d80358a1f78,
        type: 3}
      propertyPath: m_LocalPosition.x
      value: 35.30227
      objectReference: {fileID: 0}
    - target: {fileID: -4216859302048453862, guid: 55764f21fad6a9e4e81c2d80358a1f78,
        type: 3}
      propertyPath: m_LocalPosition.y
      value: 41.852272
      objectReference: {fileID: 0}
    - target: {fileID: -4216859302048453862, guid: 55764f21fad6a9e4e81c2d80358a1f78,
        type: 3}
      propertyPath: m_LocalPosition.z
      value: 10.428539
      objectReference: {fileID: 0}
    - target: {fileID: -4216859302048453862, guid: 55764f21fad6a9e4e81c2d80358a1f78,
        type: 3}
      propertyPath: m_LocalRotation.x
      value: -0.7071068
      objectReference: {fileID: 0}
    - target: {fileID: -4216859302048453862, guid: 55764f21fad6a9e4e81c2d80358a1f78,
        type: 3}
      propertyPath: m_LocalRotation.y
      value: -0
      objectReference: {fileID: 0}
    - target: {fileID: -4216859302048453862, guid: 55764f21fad6a9e4e81c2d80358a1f78,
        type: 3}
      propertyPath: m_LocalRotation.z
      value: -0
      objectReference: {fileID: 0}
    - target: {fileID: -4216859302048453862, guid: 55764f21fad6a9e4e81c2d80358a1f78,
        type: 3}
      propertyPath: m_LocalRotation.w
      value: 0.7071067
      objectReference: {fileID: 0}
    - target: {fileID: -4216859302048453862, guid: 55764f21fad6a9e4e81c2d80358a1f78,
        type: 3}
      propertyPath: m_RootOrder
      value: 0
      objectReference: {fileID: 0}
    - target: {fileID: -4216859302048453862, guid: 55764f21fad6a9e4e81c2d80358a1f78,
        type: 3}
      propertyPath: m_LocalEulerAnglesHint.x
      value: 0
      objectReference: {fileID: 0}
    - target: {fileID: -4216859302048453862, guid: 55764f21fad6a9e4e81c2d80358a1f78,
        type: 3}
      propertyPath: m_LocalEulerAnglesHint.y
      value: 0
      objectReference: {fileID: 0}
    - target: {fileID: -4216859302048453862, guid: 55764f21fad6a9e4e81c2d80358a1f78,
        type: 3}
      propertyPath: m_LocalEulerAnglesHint.z
      value: 0
      objectReference: {fileID: 0}
    - target: {fileID: -4216859302048453862, guid: 55764f21fad6a9e4e81c2d80358a1f78,
        type: 3}
      propertyPath: m_LocalScale.x
      value: 60
      objectReference: {fileID: 0}
    - target: {fileID: -4216859302048453862, guid: 55764f21fad6a9e4e81c2d80358a1f78,
        type: 3}
      propertyPath: m_LocalScale.y
      value: 39.999985
      objectReference: {fileID: 0}
    - target: {fileID: -4216859302048453862, guid: 55764f21fad6a9e4e81c2d80358a1f78,
        type: 3}
      propertyPath: m_LocalScale.z
      value: 99.99997
      objectReference: {fileID: 0}
    - target: {fileID: -927199367670048503, guid: 55764f21fad6a9e4e81c2d80358a1f78,
        type: 3}
      propertyPath: m_Name
      value: Area
      objectReference: {fileID: 0}
    m_RemovedComponents: []
  m_SourcePrefab: {fileID: 100100000, guid: 55764f21fad6a9e4e81c2d80358a1f78, type: 3}
--- !u!4 &4426245981050923267 stripped
Transform:
  m_CorrespondingSourceObject: {fileID: -4216859302048453862, guid: 55764f21fad6a9e4e81c2d80358a1f78,
    type: 3}
  m_PrefabInstance: {fileID: 8653556227039805977}
  m_PrefabAsset: {fileID: 0}
