%YAML 1.1
%TAG !u! tag:unity3d.com,2011:
--- !u!1001 &1285489072476689132
PrefabInstance:
  m_ObjectHideFlags: 0
  serializedVersion: 2
  m_Modification:
    m_TransformParent: {fileID: 0}
    m_Modifications:
    - target: {fileID: 668026514509288332, guid: 97d0719c71379ed4da39f8c830e1a58f,
        type: 3}
      propertyPath: m_Name
      value: Crate_Beam_Iron_GameObject Variant
      objectReference: {fileID: 0}
    - target: {fileID: 668026514509288333, guid: 97d0719c71379ed4da39f8c830e1a58f,
        type: 3}
      propertyPath: item
      value: 
      objectReference: {fileID: 11400000, guid: c842b431fa3fa7149856e43443939e77,
        type: 2}
    - target: {fileID: 668026514509288334, guid: 97d0719c71379ed4da39f8c830e1a58f,
        type: 3}
      propertyPath: m_LocalPosition.x
      value: 0
      objectReference: {fileID: 0}
    - target: {fileID: 668026514509288334, guid: 97d0719c71379ed4da39f8c830e1a58f,
        type: 3}
      propertyPath: m_LocalPosition.y
      value: 0
      objectReference: {fileID: 0}
    - target: {fileID: 668026514509288334, guid: 97d0719c71379ed4da39f8c830e1a58f,
        type: 3}
      propertyPath: m_LocalPosition.z
      value: 0
      objectReference: {fileID: 0}
    - target: {fileID: 668026514509288334, guid: 97d0719c71379ed4da39f8c830e1a58f,
        type: 3}
      propertyPath: m_LocalRotation.x
      value: 0
      objectReference: {fileID: 0}
    - target: {fileID: 668026514509288334, guid: 97d0719c71379ed4da39f8c830e1a58f,
        type: 3}
      propertyPath: m_LocalRotation.y
      value: 0
      objectReference: {fileID: 0}
    - target: {fileID: 668026514509288334, guid: 97d0719c71379ed4da39f8c830e1a58f,
        type: 3}
      propertyPath: m_LocalRotation.z
      value: 0
      objectReference: {fileID: 0}
    - target: {fileID: 668026514509288334, guid: 97d0719c71379ed4da39f8c830e1a58f,
        type: 3}
      propertyPath: m_LocalRotation.w
      value: 1
      objectReference: {fileID: 0}
    - target: {fileID: 668026514509288334, guid: 97d0719c71379ed4da39f8c830e1a58f,
        type: 3}
      propertyPath: m_RootOrder
      value: 0
      objectReference: {fileID: 0}
    - target: {fileID: 668026514509288334, guid: 97d0719c71379ed4da39f8c830e1a58f,
        type: 3}
      propertyPath: m_LocalEulerAnglesHint.x
      value: 0
      objectReference: {fileID: 0}
    - target: {fileID: 668026514509288334, guid: 97d0719c71379ed4da39f8c830e1a58f,
        type: 3}
      propertyPath: m_LocalEulerAnglesHint.y
      value: 0
      objectReference: {fileID: 0}
    - target: {fileID: 668026514509288334, guid: 97d0719c71379ed4da39f8c830e1a58f,
        type: 3}
      propertyPath: m_LocalEulerAnglesHint.z
      value: 0
      objectReference: {fileID: 0}
    m_RemovedComponents: []
  m_SourcePrefab: {fileID: 100100000, guid: 97d0719c71379ed4da39f8c830e1a58f, type: 3}
--- !u!4 &1770960372837171554 stripped
Transform:
  m_CorrespondingSourceObject: {fileID: 668026514509288334, guid: 97d0719c71379ed4da39f8c830e1a58f,
    type: 3}
  m_PrefabInstance: {fileID: 1285489072476689132}
  m_PrefabAsset: {fileID: 0}
--- !u!1001 &7787847891319222655
PrefabInstance:
  m_ObjectHideFlags: 0
  serializedVersion: 2
  m_Modification:
    m_TransformParent: {fileID: 1770960372837171554}
    m_Modifications:
    - target: {fileID: 2552914167946928662, guid: c5713bb92d63f9e4b8a811dadf2c937f,
        type: 3}
      propertyPath: m_Name
      value: Beam_Iron_Filling_Model
      objectReference: {fileID: 0}
    - target: {fileID: 1171853920539059295, guid: c5713bb92d63f9e4b8a811dadf2c937f,
        type: 3}
      propertyPath: m_LocalPosition.x
      value: 0.0014515
      objectReference: {fileID: 0}
    - target: {fileID: 1171853920539059295, guid: c5713bb92d63f9e4b8a811dadf2c937f,
        type: 3}
      propertyPath: m_LocalPosition.y
      value: -0.031
      objectReference: {fileID: 0}
    - target: {fileID: 1171853920539059295, guid: c5713bb92d63f9e4b8a811dadf2c937f,
        type: 3}
      propertyPath: m_LocalPosition.z
      value: -0.00036001
      objectReference: {fileID: 0}
    - target: {fileID: 1171853920539059295, guid: c5713bb92d63f9e4b8a811dadf2c937f,
        type: 3}
      propertyPath: m_LocalRotation.x
      value: -0
      objectReference: {fileID: 0}
    - target: {fileID: 1171853920539059295, guid: c5713bb92d63f9e4b8a811dadf2c937f,
        type: 3}
      propertyPath: m_LocalRotation.y
      value: -0
      objectReference: {fileID: 0}
    - target: {fileID: 1171853920539059295, guid: c5713bb92d63f9e4b8a811dadf2c937f,
        type: 3}
      propertyPath: m_LocalRotation.z
      value: -0
      objectReference: {fileID: 0}
    - target: {fileID: 1171853920539059295, guid: c5713bb92d63f9e4b8a811dadf2c937f,
        type: 3}
      propertyPath: m_LocalRotation.w
      value: 1
      objectReference: {fileID: 0}
    - target: {fileID: 1171853920539059295, guid: c5713bb92d63f9e4b8a811dadf2c937f,
        type: 3}
      propertyPath: m_RootOrder
      value: 1
      objectReference: {fileID: 0}
    - target: {fileID: 1171853920539059295, guid: c5713bb92d63f9e4b8a811dadf2c937f,
        type: 3}
      propertyPath: m_LocalEulerAnglesHint.x
      value: 0
      objectReference: {fileID: 0}
    - target: {fileID: 1171853920539059295, guid: c5713bb92d63f9e4b8a811dadf2c937f,
        type: 3}
      propertyPath: m_LocalEulerAnglesHint.y
      value: 0
      objectReference: {fileID: 0}
    - target: {fileID: 1171853920539059295, guid: c5713bb92d63f9e4b8a811dadf2c937f,
        type: 3}
      propertyPath: m_LocalEulerAnglesHint.z
      value: 0
      objectReference: {fileID: 0}
    - target: {fileID: 1171853920539059295, guid: c5713bb92d63f9e4b8a811dadf2c937f,
        type: 3}
      propertyPath: m_LocalScale.x
      value: 1.2
      objectReference: {fileID: 0}
    - target: {fileID: 1171853920539059295, guid: c5713bb92d63f9e4b8a811dadf2c937f,
        type: 3}
      propertyPath: m_LocalScale.y
      value: 1.2
      objectReference: {fileID: 0}
    - target: {fileID: 1171853920539059295, guid: c5713bb92d63f9e4b8a811dadf2c937f,
        type: 3}
      propertyPath: m_LocalScale.z
      value: 1.2
      objectReference: {fileID: 0}
    m_RemovedComponents: []
  m_SourcePrefab: {fileID: 100100000, guid: c5713bb92d63f9e4b8a811dadf2c937f, type: 3}
