%YAML 1.1
%TAG !u! tag:unity3d.com,2011:
--- !u!1 &8263583853841198779
GameObject:
  m_ObjectHideFlags: 0
  m_CorrespondingSourceObject: {fileID: 0}
  m_PrefabInstance: {fileID: 0}
  m_PrefabAsset: {fileID: 0}
  serializedVersion: 6
  m_Component:
  - component: {fileID: 8263583853841198776}
  - component: {fileID: 8263583853841198782}
  - component: {fileID: 8263583853841198777}
  m_Layer: 0
  m_Name: Destroy_Collider
  m_TagString: Untagged
  m_Icon: {fileID: 0}
  m_NavMeshLayer: 0
  m_StaticEditorFlags: 0
  m_IsActive: 1
--- !u!4 &8263583853841198776
Transform:
  m_ObjectHideFlags: 0
  m_CorrespondingSourceObject: {fileID: 0}
  m_PrefabInstance: {fileID: 0}
  m_PrefabAsset: {fileID: 0}
  m_GameObject: {fileID: 8263583853841198779}
  m_LocalRotation: {x: 0, y: 0, z: 0, w: 1}
  m_LocalPosition: {x: 0, y: 0, z: 0}
  m_LocalScale: {x: 1, y: 1, z: 1}
  m_Children: []
  m_Father: {fileID: 8263583855044276677}
  m_RootOrder: 0
  m_LocalEulerAnglesHint: {x: 0, y: 0, z: 0}
--- !u!65 &8263583853841198782
BoxCollider:
  m_ObjectHideFlags: 0
  m_CorrespondingSourceObject: {fileID: 0}
  m_PrefabInstance: {fileID: 0}
  m_PrefabAsset: {fileID: 0}
  m_GameObject: {fileID: 8263583853841198779}
  m_Material: {fileID: 0}
  m_IsTrigger: 1
  m_Enabled: 1
  serializedVersion: 2
  m_Size: {x: 1.4914775, y: 0.4739108, z: 0.9910784}
  m_Center: {x: 0.61953855, y: 0.7268326, z: -0.7154498}
--- !u!114 &8263583853841198777
MonoBehaviour:
  m_ObjectHideFlags: 0
  m_CorrespondingSourceObject: {fileID: 0}
  m_PrefabInstance: {fileID: 0}
  m_PrefabAsset: {fileID: 0}
  m_GameObject: {fileID: 8263583853841198779}
  m_Enabled: 1
  m_EditorHideFlags: 0
  m_Script: {fileID: 11500000, guid: becf124ac0af88e48b95391236391dec, type: 3}
  m_Name: 
  m_EditorClassIdentifier: 
--- !u!1 &8263583855044276676
GameObject:
  m_ObjectHideFlags: 0
  m_CorrespondingSourceObject: {fileID: 0}
  m_PrefabInstance: {fileID: 0}
  m_PrefabAsset: {fileID: 0}
  serializedVersion: 6
  m_Component:
  - component: {fileID: 8263583855044276677}
  - component: {fileID: 8263583855044276697}
  - component: {fileID: 8263583855044276696}
  - component: {fileID: 8263583855044276699}
  - component: {fileID: 8263583855044276698}
  m_Layer: 0
  m_Name: Dumpster
  m_TagString: Untagged
  m_Icon: {fileID: 0}
  m_NavMeshLayer: 0
  m_StaticEditorFlags: 0
  m_IsActive: 1
--- !u!4 &8263583855044276677
Transform:
  m_ObjectHideFlags: 0
  m_CorrespondingSourceObject: {fileID: 0}
  m_PrefabInstance: {fileID: 0}
  m_PrefabAsset: {fileID: 0}
  m_GameObject: {fileID: 8263583855044276676}
  m_LocalRotation: {x: -0, y: -0, z: -0, w: 1}
  m_LocalPosition: {x: 1.274, y: 0, z: -3.184}
  m_LocalScale: {x: 1, y: 1, z: 1}
  m_Children:
  - {fileID: 8263583853841198776}
  m_Father: {fileID: 0}
  m_RootOrder: 0
  m_LocalEulerAnglesHint: {x: 0, y: 0, z: 0}
--- !u!33 &8263583855044276697
MeshFilter:
  m_ObjectHideFlags: 0
  m_CorrespondingSourceObject: {fileID: 0}
  m_PrefabInstance: {fileID: 0}
  m_PrefabAsset: {fileID: 0}
  m_GameObject: {fileID: 8263583855044276676}
  m_Mesh: {fileID: 0}
--- !u!23 &8263583855044276696
MeshRenderer:
  m_ObjectHideFlags: 0
  m_CorrespondingSourceObject: {fileID: 0}
  m_PrefabInstance: {fileID: 0}
  m_PrefabAsset: {fileID: 0}
  m_GameObject: {fileID: 8263583855044276676}
  m_Enabled: 1
  m_CastShadows: 1
  m_ReceiveShadows: 1
  m_DynamicOccludee: 1
  m_MotionVectors: 1
  m_LightProbeUsage: 1
  m_ReflectionProbeUsage: 1
  m_RenderingLayerMask: 1
  m_RendererPriority: 0
  m_Materials:
  - {fileID: 2100000, guid: 31321ba15b8f8eb4c954353edc038b1d, type: 2}
  m_StaticBatchInfo:
    firstSubMesh: 0
    subMeshCount: 0
  m_StaticBatchRoot: {fileID: 0}
  m_ProbeAnchor: {fileID: 0}
  m_LightProbeVolumeOverride: {fileID: 0}
  m_ScaleInLightmap: 1
  m_ReceiveGI: 1
  m_PreserveUVs: 0
  m_IgnoreNormalsForChartDetection: 0
  m_ImportantGI: 0
  m_StitchLightmapSeams: 1
  m_SelectedEditorRenderState: 2
  m_MinimumChartSize: 4
  m_AutoUVMaxDistance: 0.5
  m_AutoUVMaxAngle: 89
  m_LightmapParameters: {fileID: 0}
  m_SortingLayerID: 0
  m_SortingLayer: 0
  m_SortingOrder: 0
--- !u!114 &8263583855044276699
MonoBehaviour:
  m_ObjectHideFlags: 0
  m_CorrespondingSourceObject: {fileID: 0}
  m_PrefabInstance: {fileID: 0}
  m_PrefabAsset: {fileID: 0}
  m_GameObject: {fileID: 8263583855044276676}
  m_Enabled: 1
  m_EditorHideFlags: 0
  m_Script: {fileID: 11500000, guid: 8233d90336aea43098adf6dbabd606a2, type: 3}
  m_Name: 
  m_EditorClassIdentifier: 
  m_MeshFormatVersion: 1
  m_Faces:
  - m_Indexes: 000000000100000002000000010000000300000002000000
    m_SmoothingGroup: 0
    m_Uv:
      m_UseWorldSpace: 0
      m_FlipU: 0
      m_FlipV: 0
      m_SwapUV: 0
      m_Fill: 1
      m_Scale: {x: 1, y: 1}
      m_Offset: {x: 0, y: 0}
      m_Rotation: 0
      m_Anchor: 9
    m_Material: {fileID: 0}
    m_SubmeshIndex: 0
    m_ManualUV: 0
    elementGroup: -1
    m_TextureGroup: -1
  - m_Indexes: 040000000500000006000000050000000700000006000000
    m_SmoothingGroup: 0
    m_Uv:
      m_UseWorldSpace: 0
      m_FlipU: 0
      m_FlipV: 0
      m_SwapUV: 0
      m_Fill: 1
      m_Scale: {x: 1, y: 1}
      m_Offset: {x: 0, y: 0}
      m_Rotation: 0
      m_Anchor: 9
    m_Material: {fileID: 0}
    m_SubmeshIndex: 0
    m_ManualUV: 0
    elementGroup: -1
    m_TextureGroup: -1
  - m_Indexes: 08000000090000000a000000090000000b0000000a000000
    m_SmoothingGroup: 0
    m_Uv:
      m_UseWorldSpace: 0
      m_FlipU: 0
      m_FlipV: 0
      m_SwapUV: 0
      m_Fill: 1
      m_Scale: {x: 1, y: 1}
      m_Offset: {x: 0, y: 0}
      m_Rotation: 0
      m_Anchor: 9
    m_Material: {fileID: 0}
    m_SubmeshIndex: 0
    m_ManualUV: 0
    elementGroup: -1
    m_TextureGroup: -1
  - m_Indexes: 0c0000000d0000000e0000000d0000000f0000000e000000
    m_SmoothingGroup: 0
    m_Uv:
      m_UseWorldSpace: 0
      m_FlipU: 0
      m_FlipV: 0
      m_SwapUV: 0
      m_Fill: 1
      m_Scale: {x: 1, y: 1}
      m_Offset: {x: 0, y: 0}
      m_Rotation: 0
      m_Anchor: 9
    m_Material: {fileID: 0}
    m_SubmeshIndex: 0
    m_ManualUV: 0
    elementGroup: -1
    m_TextureGroup: -1
  - m_Indexes: 100000001100000012000000110000001300000012000000
    m_SmoothingGroup: 0
    m_Uv:
      m_UseWorldSpace: 0
      m_FlipU: 0
      m_FlipV: 0
      m_SwapUV: 0
      m_Fill: 1
      m_Scale: {x: 1, y: 1}
      m_Offset: {x: 0, y: 0}
      m_Rotation: 0
      m_Anchor: 9
    m_Material: {fileID: 0}
    m_SubmeshIndex: 0
    m_ManualUV: 0
    elementGroup: -1
    m_TextureGroup: -1
  - m_Indexes: 140000001500000016000000150000001700000016000000
    m_SmoothingGroup: 0
    m_Uv:
      m_UseWorldSpace: 0
      m_FlipU: 0
      m_FlipV: 0
      m_SwapUV: 0
      m_Fill: 1
      m_Scale: {x: 1, y: 1}
      m_Offset: {x: 0, y: 0}
      m_Rotation: 0
      m_Anchor: 9
    m_Material: {fileID: 0}
    m_SubmeshIndex: 0
    m_ManualUV: 0
    elementGroup: -1
    m_TextureGroup: -1
  - m_Indexes: 18000000190000001a000000190000001b0000001a000000
    m_SmoothingGroup: 0
    m_Uv:
      m_UseWorldSpace: 0
      m_FlipU: 0
      m_FlipV: 0
      m_SwapUV: 0
      m_Fill: 1
      m_Scale: {x: 1, y: 1}
      m_Offset: {x: 0, y: 0}
      m_Rotation: 0
      m_Anchor: 9
    m_Material: {fileID: 0}
    m_SubmeshIndex: 0
    m_ManualUV: 0
    elementGroup: -1
    m_TextureGroup: -1
  - m_Indexes: 1c0000001d0000001e0000001d0000001f0000001e000000
    m_SmoothingGroup: 0
    m_Uv:
      m_UseWorldSpace: 0
      m_FlipU: 0
      m_FlipV: 0
      m_SwapUV: 0
      m_Fill: 1
      m_Scale: {x: 1, y: 1}
      m_Offset: {x: 0, y: 0}
      m_Rotation: 0
      m_Anchor: 9
    m_Material: {fileID: 0}
    m_SubmeshIndex: 0
    m_ManualUV: 0
    elementGroup: -1
    m_TextureGroup: -1
  - m_Indexes: 200000002100000022000000210000002300000022000000
    m_SmoothingGroup: 0
    m_Uv:
      m_UseWorldSpace: 0
      m_FlipU: 0
      m_FlipV: 0
      m_SwapUV: 0
      m_Fill: 1
      m_Scale: {x: 1, y: 1}
      m_Offset: {x: 0, y: 0}
      m_Rotation: 0
      m_Anchor: 9
    m_Material: {fileID: 0}
    m_SubmeshIndex: 0
    m_ManualUV: 0
    elementGroup: -1
    m_TextureGroup: -1
  - m_Indexes: 240000002500000026000000250000002700000026000000
    m_SmoothingGroup: 0
    m_Uv:
      m_UseWorldSpace: 0
      m_FlipU: 0
      m_FlipV: 0
      m_SwapUV: 0
      m_Fill: 1
      m_Scale: {x: 1, y: 1}
      m_Offset: {x: 0, y: 0}
      m_Rotation: 0
      m_Anchor: 9
    m_Material: {fileID: 0}
    m_SubmeshIndex: 0
    m_ManualUV: 0
    elementGroup: -1
    m_TextureGroup: -1
  - m_Indexes: 28000000290000002a000000290000002b0000002a000000
    m_SmoothingGroup: 0
    m_Uv:
      m_UseWorldSpace: 0
      m_FlipU: 0
      m_FlipV: 0
      m_SwapUV: 0
      m_Fill: 1
      m_Scale: {x: 1, y: 1}
      m_Offset: {x: 0, y: 0}
      m_Rotation: 0
      m_Anchor: 9
    m_Material: {fileID: 0}
    m_SubmeshIndex: 0
    m_ManualUV: 0
    elementGroup: -1
    m_TextureGroup: -1
  - m_Indexes: 2c0000002d0000002e0000002d0000002f0000002e000000
    m_SmoothingGroup: 0
    m_Uv:
      m_UseWorldSpace: 0
      m_FlipU: 0
      m_FlipV: 0
      m_SwapUV: 0
      m_Fill: 1
      m_Scale: {x: 1, y: 1}
      m_Offset: {x: 0, y: 0}
      m_Rotation: 0
      m_Anchor: 9
    m_Material: {fileID: 0}
    m_SubmeshIndex: 0
    m_ManualUV: 0
    elementGroup: -1
    m_TextureGroup: -1
  - m_Indexes: 300000003100000032000000310000003300000032000000
    m_SmoothingGroup: 0
    m_Uv:
      m_UseWorldSpace: 0
      m_FlipU: 0
      m_FlipV: 0
      m_SwapUV: 0
      m_Fill: 1
      m_Scale: {x: 1, y: 1}
      m_Offset: {x: 0, y: 0}
      m_Rotation: 0
      m_Anchor: 9
    m_Material: {fileID: 0}
    m_SubmeshIndex: 0
    m_ManualUV: 0
    elementGroup: -1
    m_TextureGroup: -1
  - m_Indexes: 340000003500000036000000350000003700000036000000
    m_SmoothingGroup: 0
    m_Uv:
      m_UseWorldSpace: 0
      m_FlipU: 0
      m_FlipV: 0
      m_SwapUV: 0
      m_Fill: 1
      m_Scale: {x: 1, y: 1}
      m_Offset: {x: 0, y: 0}
      m_Rotation: 0
      m_Anchor: 9
    m_Material: {fileID: 0}
    m_SubmeshIndex: 0
    m_ManualUV: 0
    elementGroup: -1
    m_TextureGroup: -1
  m_SharedVertices:
  - m_Vertices: 000000000d00000016000000
  - m_Vertices: 010000000400000017000000
  - m_Vertices: 020000000f000000180000001d000000
  - m_Vertices: 100000002a0000002f000000
  - m_Vertices: 1a0000001f000000280000002d000000
  - m_Vertices: 03000000060000001900000020000000
  - m_Vertices: 110000002b00000032000000
  - m_Vertices: 1b000000220000002900000030000000
  - m_Vertices: 050000000800000015000000
  - m_Vertices: 070000000a0000002100000024000000
  - m_Vertices: 130000003300000036000000
  - m_Vertices: 23000000260000003100000034000000
  - m_Vertices: 090000000c00000014000000
  - m_Vertices: 0b0000000e0000001c00000025000000
  - m_Vertices: 120000002e00000037000000
  - m_Vertices: 1e000000270000002c00000035000000
  m_SharedTextures: []
  m_Positions:
  - {x: -0.44527102, y: 0, z: 0}
  - {x: 1.6189971, y: 0, z: 0}
  - {x: -0.44527102, y: 1, z: 0}
  - {x: 1.6189971, y: 1, z: 0}
  - {x: 1.6189971, y: 0, z: 0}
  - {x: 1.6189971, y: 0, z: -1.4502926}
  - {x: 1.6189971, y: 1, z: 0}
  - {x: 1.6189971, y: 1, z: -1.4502926}
  - {x: 1.6189971, y: 0, z: -1.4502926}
  - {x: -0.44527102, y: 0, z: -1.4502926}
  - {x: 1.6189971, y: 1, z: -1.4502926}
  - {x: -0.44527102, y: 1, z: -1.4502926}
  - {x: -0.44527102, y: 0, z: -1.4502926}
  - {x: -0.44527102, y: 0, z: 0}
  - {x: -0.44527102, y: 1, z: -1.4502926}
  - {x: -0.44527102, y: 1, z: 0}
  - {x: -0.17808914, y: 0.53662395, z: -0.1877141}
  - {x: 1.3518152, y: 0.53662395, z: -0.1877141}
  - {x: -0.17808914, y: 0.53662395, z: -1.2625785}
  - {x: 1.3518152, y: 0.53662395, z: -1.2625785}
  - {x: -0.44527102, y: 0, z: -1.4502926}
  - {x: 1.6189971, y: 0, z: -1.4502926}
  - {x: -0.44527102, y: 0, z: 0}
  - {x: 1.6189971, y: 0, z: 0}
  - {x: -0.44527102, y: 1, z: 0}
  - {x: 1.6189971, y: 1, z: 0}
  - {x: -0.17808914, y: 1.0305262, z: -0.1877141}
  - {x: 1.3518152, y: 1.0305262, z: -0.1877141}
  - {x: -0.44527102, y: 1, z: -1.4502926}
  - {x: -0.44527102, y: 1, z: 0}
  - {x: -0.17808914, y: 1.0305262, z: -1.2625785}
  - {x: -0.17808914, y: 1.0305262, z: -0.1877141}
  - {x: 1.6189971, y: 1, z: 0}
  - {x: 1.6189971, y: 1, z: -1.4502926}
  - {x: 1.3518152, y: 1.0305262, z: -0.1877141}
  - {x: 1.3518152, y: 1.0305262, z: -1.2625785}
  - {x: 1.6189971, y: 1, z: -1.4502926}
  - {x: -0.44527102, y: 1, z: -1.4502926}
  - {x: 1.3518152, y: 1.0305262, z: -1.2625785}
  - {x: -0.17808914, y: 1.0305262, z: -1.2625785}
  - {x: -0.17808914, y: 1.0305262, z: -0.1877141}
  - {x: 1.3518152, y: 1.0305262, z: -0.1877141}
  - {x: -0.17808914, y: 0.53662395, z: -0.1877141}
  - {x: 1.3518152, y: 0.53662395, z: -0.1877141}
  - {x: -0.17808914, y: 1.0305262, z: -1.2625785}
  - {x: -0.17808914, y: 1.0305262, z: -0.1877141}
  - {x: -0.17808914, y: 0.53662395, z: -1.2625785}
  - {x: -0.17808914, y: 0.53662395, z: -0.1877141}
  - {x: 1.3518152, y: 1.0305262, z: -0.1877141}
  - {x: 1.3518152, y: 1.0305262, z: -1.2625785}
  - {x: 1.3518152, y: 0.53662395, z: -0.1877141}
  - {x: 1.3518152, y: 0.53662395, z: -1.2625785}
  - {x: 1.3518152, y: 1.0305262, z: -1.2625785}
  - {x: -0.17808914, y: 1.0305262, z: -1.2625785}
  - {x: 1.3518152, y: 0.53662395, z: -1.2625785}
  - {x: -0.17808914, y: 0.53662395, z: -1.2625785}
  m_Textures0:
  - {x: 0.44527102, y: 0}
  - {x: -1.6189971, y: 0}
  - {x: 0.44527102, y: 1}
  - {x: -1.6189971, y: 1}
  - {x: 0, y: 0}
  - {x: -1.4502926, y: 0}
  - {x: 0, y: 1}
  - {x: -1.4502926, y: 1}
  - {x: 1.6189971, y: 0}
  - {x: -0.44527102, y: 0}
  - {x: 1.6189971, y: 1}
  - {x: -0.44527102, y: 1}
  - {x: 1.4502926, y: 0}
  - {x: 0, y: 0}
  - {x: 1.4502926, y: 1}
  - {x: 0, y: 1}
  - {x: -0.17808914, y: -0.1877141}
  - {x: 1.3518152, y: -0.1877141}
  - {x: -0.17808914, y: -1.2625785}
  - {x: 1.3518152, y: -1.2625785}
  - {x: 0.44527102, y: -1.4502926}
  - {x: -1.6189971, y: -1.4502926}
  - {x: 0.44527102, y: 0}
  - {x: -1.6189971, y: 0}
  - {x: -0.44527102, y: -0.16051194}
  - {x: 1.6189971, y: -0.16051194}
  - {x: -0.17808914, y: -0.35069194}
  - {x: 1.3518152, y: -0.35069194}
  - {x: -0.3288791, y: -1.4502926}
  - {x: -0.3288791, y: 0}
  - {x: -0.059959024, y: -1.2625785}
  - {x: -0.059959024, y: -0.1877141}
  - {x: 1.4950187, y: 0}
  - {x: 1.4950187, y: -1.4502926}
  - {x: 1.2260987, y: -0.1877141}
  - {x: 1.2260987, y: -1.2625785}
  - {x: 1.6189971, y: -1.2709761}
  - {x: -0.44527102, y: -1.2709761}
  - {x: 1.3518152, y: -1.080796}
  - {x: -0.17808914, y: -1.080796}
  - {x: -0.17808914, y: 1.0305262}
  - {x: 1.3518152, y: 1.0305262}
  - {x: -0.17808914, y: 0.53662395}
  - {x: 1.3518152, y: 0.53662395}
  - {x: -1.2625785, y: 1.0305262}
  - {x: -0.1877141, y: 1.0305262}
  - {x: -1.2625785, y: 0.53662395}
  - {x: -0.1877141, y: 0.53662395}
  - {x: 0.1877141, y: 1.0305262}
  - {x: 1.2625785, y: 1.0305262}
  - {x: 0.1877141, y: 0.53662395}
  - {x: 1.2625785, y: 0.53662395}
  - {x: -1.3518152, y: 1.0305262}
  - {x: 0.17808914, y: 1.0305262}
  - {x: -1.3518152, y: 0.53662395}
  - {x: 0.17808914, y: 0.53662395}
  m_Textures2: []
  m_Textures3: []
  m_Tangents:
  - {x: -1, y: 0, z: 0, w: -1}
  - {x: -1, y: 0, z: 0, w: -1}
  - {x: -1, y: 0, z: 0, w: -1}
  - {x: -1, y: 0, z: 0, w: -1}
  - {x: 0, y: 0, z: 1, w: -1}
  - {x: 0, y: 0, z: 1, w: -1}
  - {x: 0, y: 0, z: 1, w: -1}
  - {x: 0, y: 0, z: 1, w: -1}
  - {x: 1, y: 0, z: 0, w: -1}
  - {x: 1, y: 0, z: 0, w: -1}
  - {x: 1, y: 0, z: 0, w: -1}
  - {x: 1, y: 0, z: 0, w: -1}
  - {x: 0, y: 0, z: -1, w: -1}
  - {x: 0, y: 0, z: -1, w: -1}
  - {x: 0, y: 0, z: -1, w: -1}
  - {x: 0, y: 0, z: -1, w: -1}
  - {x: 1, y: 0, z: 0, w: -1}
  - {x: 1, y: 0, z: 0, w: -1}
  - {x: 1, y: 0, z: 0, w: -1}
  - {x: 1, y: 0, z: 0, w: -1}
  - {x: -1, y: 0, z: 0, w: -1}
  - {x: -1, y: 0, z: 0, w: -1}
  - {x: -1, y: 0, z: 0, w: -1}
  - {x: -1, y: 0, z: 0, w: -1}
  - {x: 1, y: 0, z: 0, w: -1}
  - {x: 1, y: 0, z: 0, w: -1}
  - {x: 1, y: 0, z: 0, w: -1}
  - {x: 1, y: 0, z: 0, w: -1}
  - {x: 0.9935364, y: 0.11351388, z: 0, w: -1}
  - {x: 0.9935364, y: 0.113513894, z: 0, w: -1}
  - {x: 0.9935364, y: 0.113513894, z: 0, w: -1}
  - {x: 0.9935364, y: 0.113513894, z: 0, w: -1}
  - {x: 0.9935364, y: -0.11351388, z: 0, w: -1}
  - {x: 0.9935364, y: -0.113513894, z: 0, w: -1}
  - {x: 0.9935364, y: -0.113513894, z: 0, w: -1}
  - {x: 0.9935364, y: -0.113513894, z: 0, w: -1}
  - {x: 1, y: 0, z: 0, w: -1}
  - {x: 1, y: 0, z: 0, w: -1}
  - {x: 1, y: 0, z: 0, w: -1}
  - {x: 1, y: 0, z: 0, w: -1}
  - {x: 1, y: 0, z: 0, w: -1}
  - {x: 1, y: 0, z: 0, w: -1}
  - {x: 1, y: 0, z: 0, w: -1}
  - {x: 1, y: 0, z: 0, w: -1}
  - {x: 0, y: 0, z: 1, w: -1}
  - {x: 0, y: 0, z: 1, w: -1}
  - {x: 0, y: 0, z: 1, w: -1}
  - {x: 0, y: 0, z: 1, w: -1}
  - {x: 0, y: 0, z: -1, w: -1}
  - {x: 0, y: 0, z: -1, w: -1}
  - {x: 0, y: 0, z: -1, w: -1}
  - {x: 0, y: 0, z: -1, w: -1}
  - {x: -1, y: 0, z: 0, w: -1}
  - {x: -1, y: 0, z: 0, w: -1}
  - {x: -1, y: 0, z: 0, w: -1}
  - {x: -1, y: 0, z: 0, w: -1}
  m_Colors: []
  m_UnwrapParameters:
    m_HardAngle: 88
    m_PackMargin: 20
    m_AngleError: 8
    m_AreaError: 15
  m_PreserveMeshAssetOnDestroy: 0
  assetGuid: 
  m_IsSelectable: 1
  m_SelectedFaces: 04000000
  m_SelectedEdges:
  - a: 16
    b: 17
  - a: 18
    b: 16
  - a: 17
    b: 19
  - a: 19
    b: 18
  m_SelectedVertices: 10000000110000001200000013000000
--- !u!64 &8263583855044276698
MeshCollider:
  m_ObjectHideFlags: 0
  m_CorrespondingSourceObject: {fileID: 0}
  m_PrefabInstance: {fileID: 0}
  m_PrefabAsset: {fileID: 0}
  m_GameObject: {fileID: 8263583855044276676}
  m_Material: {fileID: 0}
  m_IsTrigger: 0
  m_Enabled: 1
  serializedVersion: 3
  m_Convex: 0
  m_CookingOptions: 14
  m_Mesh: {fileID: 0}
