%YAML 1.1
%TAG !u! tag:unity3d.com,2011:
--- !u!1 &3937645905709166775
GameObject:
  m_ObjectHideFlags: 0
  m_CorrespondingSourceObject: {fileID: 0}
  m_PrefabInstance: {fileID: 0}
  m_PrefabAsset: {fileID: 0}
  serializedVersion: 6
  m_Component:
  - component: {fileID: 682064211408935884}
  m_Layer: 0
  m_Name: Counter_Straight_Model
  m_TagString: Untagged
  m_Icon: {fileID: 0}
  m_NavMeshLayer: 0
  m_StaticEditorFlags: 0
  m_IsActive: 1
--- !u!4 &682064211408935884
Transform:
  m_ObjectHideFlags: 0
  m_CorrespondingSourceObject: {fileID: 0}
  m_PrefabInstance: {fileID: 0}
  m_PrefabAsset: {fileID: 0}
  m_GameObject: {fileID: 3937645905709166775}
  m_LocalRotation: {x: 0, y: 0, z: 0, w: 1}
  m_LocalPosition: {x: -3.72009, y: 0, z: 5.112641}
  m_LocalScale: {x: 1, y: 1, z: 1}
  m_Children:
  - {fileID: 7468584655638771707}
  - {fileID: 1308229731479351402}
  m_Father: {fileID: 0}
  m_RootOrder: 0
  m_LocalEulerAnglesHint: {x: 0, y: 0, z: 0}
--- !u!1001 &2512739083140308193
PrefabInstance:
  m_ObjectHideFlags: 0
  serializedVersion: 2
  m_Modification:
    m_TransformParent: {fileID: 682064211408935884}
    m_Modifications:
    - target: {fileID: -927199367670048503, guid: 932fdb4b9fab0214c9223debd7262972,
        type: 3}
      propertyPath: m_Name
      value: Counter_Staright_Base
      objectReference: {fileID: 0}
    - target: {fileID: -4216859302048453862, guid: 932fdb4b9fab0214c9223debd7262972,
        type: 3}
      propertyPath: m_LocalPosition.x
      value: -0
      objectReference: {fileID: 0}
    - target: {fileID: -4216859302048453862, guid: 932fdb4b9fab0214c9223debd7262972,
        type: 3}
      propertyPath: m_LocalPosition.y
      value: 0
      objectReference: {fileID: 0}
    - target: {fileID: -4216859302048453862, guid: 932fdb4b9fab0214c9223debd7262972,
        type: 3}
      propertyPath: m_LocalPosition.z
      value: 0
      objectReference: {fileID: 0}
    - target: {fileID: -4216859302048453862, guid: 932fdb4b9fab0214c9223debd7262972,
        type: 3}
      propertyPath: m_LocalRotation.x
      value: -0.7071068
      objectReference: {fileID: 0}
    - target: {fileID: -4216859302048453862, guid: 932fdb4b9fab0214c9223debd7262972,
        type: 3}
      propertyPath: m_LocalRotation.y
      value: 0
      objectReference: {fileID: 0}
    - target: {fileID: -4216859302048453862, guid: 932fdb4b9fab0214c9223debd7262972,
        type: 3}
      propertyPath: m_LocalRotation.z
      value: 0
      objectReference: {fileID: 0}
    - target: {fileID: -4216859302048453862, guid: 932fdb4b9fab0214c9223debd7262972,
        type: 3}
      propertyPath: m_LocalRotation.w
      value: 0.7071068
      objectReference: {fileID: 0}
    - target: {fileID: -4216859302048453862, guid: 932fdb4b9fab0214c9223debd7262972,
        type: 3}
      propertyPath: m_RootOrder
      value: 0
      objectReference: {fileID: 0}
    - target: {fileID: -4216859302048453862, guid: 932fdb4b9fab0214c9223debd7262972,
        type: 3}
      propertyPath: m_LocalEulerAnglesHint.x
      value: -90
      objectReference: {fileID: 0}
    - target: {fileID: -4216859302048453862, guid: 932fdb4b9fab0214c9223debd7262972,
        type: 3}
      propertyPath: m_LocalEulerAnglesHint.y
      value: 0
      objectReference: {fileID: 0}
    - target: {fileID: -4216859302048453862, guid: 932fdb4b9fab0214c9223debd7262972,
        type: 3}
      propertyPath: m_LocalEulerAnglesHint.z
      value: 0
      objectReference: {fileID: 0}
    - target: {fileID: -4216859302048453862, guid: 932fdb4b9fab0214c9223debd7262972,
        type: 3}
      propertyPath: m_LocalScale.x
      value: 25
      objectReference: {fileID: 0}
    - target: {fileID: -4216859302048453862, guid: 932fdb4b9fab0214c9223debd7262972,
        type: 3}
      propertyPath: m_LocalScale.y
      value: 25
      objectReference: {fileID: 0}
    - target: {fileID: -4216859302048453862, guid: 932fdb4b9fab0214c9223debd7262972,
        type: 3}
      propertyPath: m_LocalScale.z
      value: 30
      objectReference: {fileID: 0}
    - target: {fileID: -1504981713932161579, guid: 932fdb4b9fab0214c9223debd7262972,
        type: 3}
      propertyPath: m_Materials.Array.data[0]
      value: 
      objectReference: {fileID: 2100000, guid: e207370d71c5c5641981eb8452bcb6e0, type: 2}
    m_RemovedComponents: []
  m_SourcePrefab: {fileID: 100100000, guid: 932fdb4b9fab0214c9223debd7262972, type: 3}
--- !u!4 &7468584655638771707 stripped
Transform:
  m_CorrespondingSourceObject: {fileID: -4216859302048453862, guid: 932fdb4b9fab0214c9223debd7262972,
    type: 3}
  m_PrefabInstance: {fileID: 2512739083140308193}
  m_PrefabAsset: {fileID: 0}
--- !u!1001 &6295311879585127280
PrefabInstance:
  m_ObjectHideFlags: 0
  serializedVersion: 2
  m_Modification:
    m_TransformParent: {fileID: 682064211408935884}
    m_Modifications:
    - target: {fileID: -927199367670048503, guid: fbdbaf179d17f374aa8f632fbdcb7d02,
        type: 3}
      propertyPath: m_Name
      value: Counter_Staright_Table
      objectReference: {fileID: 0}
    - target: {fileID: -4216859302048453862, guid: fbdbaf179d17f374aa8f632fbdcb7d02,
        type: 3}
      propertyPath: m_LocalPosition.x
      value: -0
      objectReference: {fileID: 0}
    - target: {fileID: -4216859302048453862, guid: fbdbaf179d17f374aa8f632fbdcb7d02,
        type: 3}
      propertyPath: m_LocalPosition.y
      value: 0.445
      objectReference: {fileID: 0}
    - target: {fileID: -4216859302048453862, guid: fbdbaf179d17f374aa8f632fbdcb7d02,
        type: 3}
      propertyPath: m_LocalPosition.z
      value: 0
      objectReference: {fileID: 0}
    - target: {fileID: -4216859302048453862, guid: fbdbaf179d17f374aa8f632fbdcb7d02,
        type: 3}
      propertyPath: m_LocalRotation.x
      value: -0.7071068
      objectReference: {fileID: 0}
    - target: {fileID: -4216859302048453862, guid: fbdbaf179d17f374aa8f632fbdcb7d02,
        type: 3}
      propertyPath: m_LocalRotation.y
      value: 0
      objectReference: {fileID: 0}
    - target: {fileID: -4216859302048453862, guid: fbdbaf179d17f374aa8f632fbdcb7d02,
        type: 3}
      propertyPath: m_LocalRotation.z
      value: 0
      objectReference: {fileID: 0}
    - target: {fileID: -4216859302048453862, guid: fbdbaf179d17f374aa8f632fbdcb7d02,
        type: 3}
      propertyPath: m_LocalRotation.w
      value: 0.7071068
      objectReference: {fileID: 0}
    - target: {fileID: -4216859302048453862, guid: fbdbaf179d17f374aa8f632fbdcb7d02,
        type: 3}
      propertyPath: m_RootOrder
      value: 1
      objectReference: {fileID: 0}
    - target: {fileID: -4216859302048453862, guid: fbdbaf179d17f374aa8f632fbdcb7d02,
        type: 3}
      propertyPath: m_LocalEulerAnglesHint.x
      value: -90
      objectReference: {fileID: 0}
    - target: {fileID: -4216859302048453862, guid: fbdbaf179d17f374aa8f632fbdcb7d02,
        type: 3}
      propertyPath: m_LocalEulerAnglesHint.y
      value: 0
      objectReference: {fileID: 0}
    - target: {fileID: -4216859302048453862, guid: fbdbaf179d17f374aa8f632fbdcb7d02,
        type: 3}
      propertyPath: m_LocalEulerAnglesHint.z
      value: 0
      objectReference: {fileID: 0}
    - target: {fileID: -4216859302048453862, guid: fbdbaf179d17f374aa8f632fbdcb7d02,
        type: 3}
      propertyPath: m_LocalScale.x
      value: 25
      objectReference: {fileID: 0}
    - target: {fileID: -4216859302048453862, guid: fbdbaf179d17f374aa8f632fbdcb7d02,
        type: 3}
      propertyPath: m_LocalScale.y
      value: 25
      objectReference: {fileID: 0}
    - target: {fileID: -4216859302048453862, guid: fbdbaf179d17f374aa8f632fbdcb7d02,
        type: 3}
      propertyPath: m_LocalScale.z
      value: 25
      objectReference: {fileID: 0}
    - target: {fileID: -1504981713932161579, guid: fbdbaf179d17f374aa8f632fbdcb7d02,
        type: 3}
      propertyPath: m_Materials.Array.data[0]
      value: 
      objectReference: {fileID: 2100000, guid: bde9d0dc006f8b544806e7b61b1d2fe1, type: 2}
    m_RemovedComponents: []
  m_SourcePrefab: {fileID: 100100000, guid: fbdbaf179d17f374aa8f632fbdcb7d02, type: 3}
--- !u!4 &1308229731479351402 stripped
Transform:
  m_CorrespondingSourceObject: {fileID: -4216859302048453862, guid: fbdbaf179d17f374aa8f632fbdcb7d02,
    type: 3}
  m_PrefabInstance: {fileID: 6295311879585127280}
  m_PrefabAsset: {fileID: 0}
