%YAML 1.1
%TAG !u! tag:unity3d.com,2011:
--- !u!114 &11400000
MonoBehaviour:
  m_ObjectHideFlags: 0
  m_CorrespondingSourceObject: {fileID: 0}
  m_PrefabInstance: {fileID: 0}
  m_PrefabAsset: {fileID: 0}
  m_GameObject: {fileID: 0}
  m_Enabled: 1
  m_EditorHideFlags: 0
  m_Script: {fileID: 11500000, guid: a7275cb0361f44949b41ee2700ae2733, type: 3}
  m_Name: Itm_Monitor
  m_EditorClassIdentifier: 
  Id: Itm_Monitor
  Name: Monitors
  icon: {fileID: 21300000, guid: 7de500f412ee17145914608e5ebc8b67, type: 3}
  value: 20
  timeForPrepering: 40
  prefab: {fileID: 2825146355884333729, guid: a758af5d133b92a4b9912e409ea7d481, type: 3}
