%YAML 1.1
%TAG !u! tag:unity3d.com,2011:
--- !u!114 &11400000
MonoBehaviour:
  m_ObjectHideFlags: 0
  m_CorrespondingSourceObject: {fileID: 0}
  m_PrefabInstance: {fileID: 0}
  m_PrefabAsset: {fileID: 0}
  m_GameObject: {fileID: 0}
  m_Enabled: 1
  m_EditorHideFlags: 0
  m_Script: {fileID: 11500000, guid: a7275cb0361f44949b41ee2700ae2733, type: 3}
  m_Name: Itm_Keyboards
  m_EditorClassIdentifier: 
  Id: Itm_Keyboards
  Name: Keyboards
  icon: {fileID: 21300000, guid: 7de500f412ee17145914608e5ebc8b67, type: 3}
  value: 10
  timeForPrepering: 20
  prefab: {fileID: 1041888595603823357, guid: 2becd9c89caa9b1459c9cc77c845cfb0, type: 3}
