%YAML 1.1
%TAG !u! tag:unity3d.com,2011:
--- !u!1 &5498949117142681470
GameObject:
  m_ObjectHideFlags: 0
  m_CorrespondingSourceObject: {fileID: 0}
  m_PrefabInstance: {fileID: 0}
  m_PrefabAsset: {fileID: 0}
  serializedVersion: 6
  m_Component:
  - component: {fileID: 6266720979329851061}
  m_Layer: 0
  m_Name: Lorry_Truck_Model
  m_TagString: Untagged
  m_Icon: {fileID: 0}
  m_NavMeshLayer: 0
  m_StaticEditorFlags: 0
  m_IsActive: 1
--- !u!4 &6266720979329851061
Transform:
  m_ObjectHideFlags: 0
  m_CorrespondingSourceObject: {fileID: 0}
  m_PrefabInstance: {fileID: 0}
  m_PrefabAsset: {fileID: 0}
  m_GameObject: {fileID: 5498949117142681470}
  m_LocalRotation: {x: 0, y: 0, z: 0, w: 1}
  m_LocalPosition: {x: 0, y: 0, z: 0}
  m_LocalScale: {x: 1, y: 1, z: 1}
  m_Children:
  - {fileID: 7461886330683878557}
  - {fileID: 6910037543626689580}
  m_Father: {fileID: 0}
  m_RootOrder: 0
  m_LocalEulerAnglesHint: {x: 0, y: 0, z: 0}
--- !u!1001 &5411492240124969568
PrefabInstance:
  m_ObjectHideFlags: 0
  serializedVersion: 2
  m_Modification:
    m_TransformParent: {fileID: 6266720979329851061}
    m_Modifications:
    - target: {fileID: 1733827937929678585, guid: c595d420472ead74084f474fd623a7bd,
        type: 3}
      propertyPath: m_Name
      value: Truck_Modle
      objectReference: {fileID: 0}
    - target: {fileID: 3212343687328558845, guid: c595d420472ead74084f474fd623a7bd,
        type: 3}
      propertyPath: m_LocalPosition.x
      value: 0
      objectReference: {fileID: 0}
    - target: {fileID: 3212343687328558845, guid: c595d420472ead74084f474fd623a7bd,
        type: 3}
      propertyPath: m_LocalPosition.y
      value: 0
      objectReference: {fileID: 0}
    - target: {fileID: 3212343687328558845, guid: c595d420472ead74084f474fd623a7bd,
        type: 3}
      propertyPath: m_LocalPosition.z
      value: 0
      objectReference: {fileID: 0}
    - target: {fileID: 3212343687328558845, guid: c595d420472ead74084f474fd623a7bd,
        type: 3}
      propertyPath: m_LocalRotation.x
      value: 0
      objectReference: {fileID: 0}
    - target: {fileID: 3212343687328558845, guid: c595d420472ead74084f474fd623a7bd,
        type: 3}
      propertyPath: m_LocalRotation.y
      value: 0.7071068
      objectReference: {fileID: 0}
    - target: {fileID: 3212343687328558845, guid: c595d420472ead74084f474fd623a7bd,
        type: 3}
      propertyPath: m_LocalRotation.z
      value: 0
      objectReference: {fileID: 0}
    - target: {fileID: 3212343687328558845, guid: c595d420472ead74084f474fd623a7bd,
        type: 3}
      propertyPath: m_LocalRotation.w
      value: 0.7071068
      objectReference: {fileID: 0}
    - target: {fileID: 3212343687328558845, guid: c595d420472ead74084f474fd623a7bd,
        type: 3}
      propertyPath: m_RootOrder
      value: 0
      objectReference: {fileID: 0}
    - target: {fileID: 3212343687328558845, guid: c595d420472ead74084f474fd623a7bd,
        type: 3}
      propertyPath: m_LocalEulerAnglesHint.x
      value: 0
      objectReference: {fileID: 0}
    - target: {fileID: 3212343687328558845, guid: c595d420472ead74084f474fd623a7bd,
        type: 3}
      propertyPath: m_LocalEulerAnglesHint.y
      value: 90
      objectReference: {fileID: 0}
    - target: {fileID: 3212343687328558845, guid: c595d420472ead74084f474fd623a7bd,
        type: 3}
      propertyPath: m_LocalEulerAnglesHint.z
      value: 0
      objectReference: {fileID: 0}
    m_RemovedComponents: []
  m_SourcePrefab: {fileID: 100100000, guid: c595d420472ead74084f474fd623a7bd, type: 3}
--- !u!4 &7461886330683878557 stripped
Transform:
  m_CorrespondingSourceObject: {fileID: 3212343687328558845, guid: c595d420472ead74084f474fd623a7bd,
    type: 3}
  m_PrefabInstance: {fileID: 5411492240124969568}
  m_PrefabAsset: {fileID: 0}
--- !u!1001 &7965928275980959298
PrefabInstance:
  m_ObjectHideFlags: 0
  serializedVersion: 2
  m_Modification:
    m_TransformParent: {fileID: 6266720979329851061}
    m_Modifications:
    - target: {fileID: 4630269059489784497, guid: 9b5c6aa1952fe4d4f99a0dc05f4245ac,
        type: 3}
      propertyPath: m_Name
      value: Lorry_Model
      objectReference: {fileID: 0}
    - target: {fileID: 3560600212285092462, guid: 9b5c6aa1952fe4d4f99a0dc05f4245ac,
        type: 3}
      propertyPath: m_LocalPosition.x
      value: -2.9
      objectReference: {fileID: 0}
    - target: {fileID: 3560600212285092462, guid: 9b5c6aa1952fe4d4f99a0dc05f4245ac,
        type: 3}
      propertyPath: m_LocalPosition.y
      value: 0
      objectReference: {fileID: 0}
    - target: {fileID: 3560600212285092462, guid: 9b5c6aa1952fe4d4f99a0dc05f4245ac,
        type: 3}
      propertyPath: m_LocalPosition.z
      value: 0
      objectReference: {fileID: 0}
    - target: {fileID: 3560600212285092462, guid: 9b5c6aa1952fe4d4f99a0dc05f4245ac,
        type: 3}
      propertyPath: m_LocalRotation.x
      value: 0
      objectReference: {fileID: 0}
    - target: {fileID: 3560600212285092462, guid: 9b5c6aa1952fe4d4f99a0dc05f4245ac,
        type: 3}
      propertyPath: m_LocalRotation.y
      value: 0.7071068
      objectReference: {fileID: 0}
    - target: {fileID: 3560600212285092462, guid: 9b5c6aa1952fe4d4f99a0dc05f4245ac,
        type: 3}
      propertyPath: m_LocalRotation.z
      value: 0
      objectReference: {fileID: 0}
    - target: {fileID: 3560600212285092462, guid: 9b5c6aa1952fe4d4f99a0dc05f4245ac,
        type: 3}
      propertyPath: m_LocalRotation.w
      value: 0.7071068
      objectReference: {fileID: 0}
    - target: {fileID: 3560600212285092462, guid: 9b5c6aa1952fe4d4f99a0dc05f4245ac,
        type: 3}
      propertyPath: m_RootOrder
      value: 1
      objectReference: {fileID: 0}
    - target: {fileID: 3560600212285092462, guid: 9b5c6aa1952fe4d4f99a0dc05f4245ac,
        type: 3}
      propertyPath: m_LocalEulerAnglesHint.x
      value: 0
      objectReference: {fileID: 0}
    - target: {fileID: 3560600212285092462, guid: 9b5c6aa1952fe4d4f99a0dc05f4245ac,
        type: 3}
      propertyPath: m_LocalEulerAnglesHint.y
      value: 90
      objectReference: {fileID: 0}
    - target: {fileID: 3560600212285092462, guid: 9b5c6aa1952fe4d4f99a0dc05f4245ac,
        type: 3}
      propertyPath: m_LocalEulerAnglesHint.z
      value: 0
      objectReference: {fileID: 0}
    m_RemovedComponents: []
  m_SourcePrefab: {fileID: 100100000, guid: 9b5c6aa1952fe4d4f99a0dc05f4245ac, type: 3}
--- !u!4 &6910037543626689580 stripped
Transform:
  m_CorrespondingSourceObject: {fileID: 3560600212285092462, guid: 9b5c6aa1952fe4d4f99a0dc05f4245ac,
    type: 3}
  m_PrefabInstance: {fileID: 7965928275980959298}
  m_PrefabAsset: {fileID: 0}
